…
To retrieve the granular dataset, simply do:

``` julia
bmk(agg=nothing)
```

    75×8 DataFrame
     Row │ sample                                num_counterfactual  variable    v ⋯
         │ Base.UUID                             Int64               String      F ⋯
    ─────┼──────────────────────────────────────────────────────────────────────────
       1 │ 4d870646-f4c2-11ee-2da2-038400ab9389                   1  distance    3 ⋯
       2 │ 4d870646-f4c2-11ee-2da2-038400ab9389                   2  distance    3
       3 │ 4d870646-f4c2-11ee-2da2-038400ab9389                   3  distance    3
       4 │ 4d870646-f4c2-11ee-2da2-038400ab9389                   4  distance    3
       5 │ 4d870646-f4c2-11ee-2da2-038400ab9389                   5  distance    3 ⋯
       6 │ 4d870646-f4c2-11ee-2da2-038400ab9389                   1  redundancy  0
       7 │ 4d870646-f4c2-11ee-2da2-038400ab9389                   2  redundancy  0
       8 │ 4d870646-f4c2-11ee-2da2-038400ab9389                   3  redundancy  0
       9 │ 4d870646-f4c2-11ee-2da2-038400ab9389                   4  redundancy  0 ⋯
      10 │ 4d870646-f4c2-11ee-2da2-038400ab9389                   5  redundancy  0
      11 │ 4d870646-f4c2-11ee-2da2-038400ab9389                   1  validity    1
      ⋮  │                  ⋮                            ⋮               ⋮         ⋱
      66 │ 4d8e53f6-f4c2-11ee-2cd8-d5ee288aa79f                   1  redundancy  0
      67 │ 4d8e53f6-f4c2-11ee-2cd8-d5ee288aa79f                   2  redundancy  0 ⋯
      68 │ 4d8e53f6-f4c2-11ee-2cd8-d5ee288aa79f                   3  redundancy  0
      69 │ 4d8e53f6-f4c2-11ee-2cd8-d5ee288aa79f                   4  redundancy  0
      70 │ 4d8e53f6-f4c2-11ee-2cd8-d5ee288aa79f                   5  redundancy  0
      71 │ 4d8e53f6-f4c2-11ee-2cd8-d5ee288aa79f                   1  validity    1 ⋯
      72 │ 4d8e53f6-f4c2-11ee-2cd8-d5ee288aa79f                   2  validity    1
      73 │ 4d8e53f6-f4c2-11ee-2cd8-d5ee288aa79f                   3  validity    1
      74 │ 4d8e53f6-f4c2-11ee-2cd8-d5ee288aa79f                   4  validity    1
      75 │ 4d8e53f6-f4c2-11ee-2cd8-d5ee288aa79f                   5  validity    1 ⋯
                                                       5 columns and 54 rows omitted
…
``` julia
bmk = benchmark(counterfactual_data)
```

This will use the default models from [`standard_models_catalogue`](@ref) and train them on the data. All available generators from [`generator_catalogue`](@ref) will also be used:

``` julia
@chain bmk() begin
    @filter(variable == "validity")
    @select(sample, variable, value, model, generator)
end
```

    200×5 DataFrame
     Row │ sample                                variable  value    model   genera ⋯
         │ Base.UUID                             String    Float64  Symbol  Symbol ⋯
    ─────┼──────────────────────────────────────────────────────────────────────────
       1 │ 5c195b3c-f4c2-11ee-322a-9173776f3b7a  validity      1.0  Linear  gravit ⋯
       2 │ 5c195b3c-f4c2-11ee-322a-9173776f3b7a  validity      1.0  Linear  growin
       3 │ 5c195b3c-f4c2-11ee-322a-9173776f3b7a  validity      1.0  Linear  revise
       4 │ 5c195b3c-f4c2-11ee-322a-9173776f3b7a  validity      1.0  Linear  clue
       5 │ 5c195b3c-f4c2-11ee-322a-9173776f3b7a  validity      1.0  Linear  probe  ⋯
       6 │ 5c195b3c-f4c2-11ee-322a-9173776f3b7a  validity      1.0  Linear  dice
       7 │ 5c195b3c-f4c2-11ee-322a-9173776f3b7a  validity      1.0  Linear  clapro
       8 │ 5c195b3c-f4c2-11ee-322a-9173776f3b7a  validity      1.0  Linear  wachte
       9 │ 5c195b3c-f4c2-11ee-322a-9173776f3b7a  validity      1.0  Linear  generi ⋯
      10 │ 5c195b3c-f4c2-11ee-322a-9173776f3b7a  validity      1.0  Linear  greedy
      11 │ 5c1a277e-f4c2-11ee-0a8e-fb5f14a8e654  validity      1.0  Linear  gravit
      ⋮  │                  ⋮                       ⋮         ⋮       ⋮            ⋱
     191 │ 5cc2ba42-f4c2-11ee-3d2a-d5b8e088cf5b  validity      1.0  MLP     gravit
     192 │ 5cc2ba42-f4c2-11ee-3d2a-d5b8e088cf5b  validity      1.0  MLP     growin ⋯
     193 │ 5cc2ba42-f4c2-11ee-3d2a-d5b8e088cf5b  validity      1.0  MLP     revise
     194 │ 5cc2ba42-f4c2-11ee-3d2a-d5b8e088cf5b  validity      1.0  MLP     clue
     195 │ 5cc2ba42-f4c2-11ee-3d2a-d5b8e088cf5b  validity      1.0  MLP     probe
     196 │ 5cc2ba42-f4c2-11ee-3d2a-d5b8e088cf5b  validity      1.0  MLP     dice   ⋯
     197 │ 5cc2ba42-f4c2-11ee-3d2a-d5b8e088cf5b  validity      1.0  MLP     clapro
     198 │ 5cc2ba42-f4c2-11ee-3d2a-d5b8e088cf5b  validity      1.0  MLP     wachte
     199 │ 5cc2ba42-f4c2-11ee-3d2a-d5b8e088cf5b  validity      1.0  MLP     generi
     200 │ 5cc2ba42-f4c2-11ee-3d2a-d5b8e088cf5b  validity      1.0  MLP     greedy ⋯
                                                       1 column and 179 rows omitted
…
