…
To retrieve the granular dataset, simply do:

``` julia
bmk(agg=nothing)
```

    75×8 DataFrame
     Row │ sample                                num_counterfactual  variable    v ⋯
         │ Base.UUID                             Int64               String      F ⋯
    ─────┼──────────────────────────────────────────────────────────────────────────
       1 │ 1cf32774-f42e-11ee-1dc3-c14a27548b03                   1  distance    3 ⋯
       2 │ 1cf32774-f42e-11ee-1dc3-c14a27548b03                   2  distance    3
       3 │ 1cf32774-f42e-11ee-1dc3-c14a27548b03                   3  distance    3
       4 │ 1cf32774-f42e-11ee-1dc3-c14a27548b03                   4  distance    3
       5 │ 1cf32774-f42e-11ee-1dc3-c14a27548b03                   5  distance    3 ⋯
       6 │ 1cf32774-f42e-11ee-1dc3-c14a27548b03                   1  redundancy  0
       7 │ 1cf32774-f42e-11ee-1dc3-c14a27548b03                   2  redundancy  0
       8 │ 1cf32774-f42e-11ee-1dc3-c14a27548b03                   3  redundancy  0
       9 │ 1cf32774-f42e-11ee-1dc3-c14a27548b03                   4  redundancy  0 ⋯
      10 │ 1cf32774-f42e-11ee-1dc3-c14a27548b03                   5  redundancy  0
      11 │ 1cf32774-f42e-11ee-1dc3-c14a27548b03                   1  validity    1
      ⋮  │                  ⋮                            ⋮               ⋮         ⋱
      66 │ 1cfae3f6-f42e-11ee-0e0b-dfd18963acec                   1  redundancy  0
      67 │ 1cfae3f6-f42e-11ee-0e0b-dfd18963acec                   2  redundancy  0 ⋯
      68 │ 1cfae3f6-f42e-11ee-0e0b-dfd18963acec                   3  redundancy  0
      69 │ 1cfae3f6-f42e-11ee-0e0b-dfd18963acec                   4  redundancy  0
      70 │ 1cfae3f6-f42e-11ee-0e0b-dfd18963acec                   5  redundancy  0
      71 │ 1cfae3f6-f42e-11ee-0e0b-dfd18963acec                   1  validity    1 ⋯
      72 │ 1cfae3f6-f42e-11ee-0e0b-dfd18963acec                   2  validity    1
      73 │ 1cfae3f6-f42e-11ee-0e0b-dfd18963acec                   3  validity    1
      74 │ 1cfae3f6-f42e-11ee-0e0b-dfd18963acec                   4  validity    1
      75 │ 1cfae3f6-f42e-11ee-0e0b-dfd18963acec                   5  validity    1 ⋯
                                                       5 columns and 54 rows omitted
…
``` julia
bmk = benchmark(counterfactual_data)
```

This will use the default models from [`standard_models_catalogue`](@ref) and train them on the data. All available generators from [`generator_catalogue`](@ref) will also be used:

``` julia
@chain bmk() begin
    @filter(variable == "validity")
    @select(sample, variable, value, model, generator)
end
```

    200×5 DataFrame
     Row │ sample                                variable  value    model   genera ⋯
         │ Base.UUID                             String    Float64  Symbol  Symbol ⋯
    ─────┼──────────────────────────────────────────────────────────────────────────
       1 │ fa9efec2-f42e-11ee-3ffa-8573e6574f34  validity      1.0  Linear  gravit ⋯
       2 │ fa9efec2-f42e-11ee-3ffa-8573e6574f34  validity      1.0  Linear  growin
       3 │ fa9efec2-f42e-11ee-3ffa-8573e6574f34  validity      1.0  Linear  revise
       4 │ fa9efec2-f42e-11ee-3ffa-8573e6574f34  validity      1.0  Linear  clue
       5 │ fa9efec2-f42e-11ee-3ffa-8573e6574f34  validity      1.0  Linear  probe  ⋯
       6 │ fa9efec2-f42e-11ee-3ffa-8573e6574f34  validity      1.0  Linear  dice
       7 │ fa9efec2-f42e-11ee-3ffa-8573e6574f34  validity      1.0  Linear  clapro
       8 │ fa9efec2-f42e-11ee-3ffa-8573e6574f34  validity      1.0  Linear  wachte
       9 │ fa9efec2-f42e-11ee-3ffa-8573e6574f34  validity      1.0  Linear  generi ⋯
      10 │ fa9efec2-f42e-11ee-3ffa-8573e6574f34  validity      1.0  Linear  greedy
      11 │ fa9fcebc-f42e-11ee-12fc-fff8c5c8948e  validity      1.0  Linear  gravit
      ⋮  │                  ⋮                       ⋮         ⋮       ⋮            ⋱
     191 │ fb4e9e6a-f42e-11ee-101c-1197127b452f  validity      1.0  MLP     gravit
     192 │ fb4e9e6a-f42e-11ee-101c-1197127b452f  validity      1.0  MLP     growin ⋯
     193 │ fb4e9e6a-f42e-11ee-101c-1197127b452f  validity      1.0  MLP     revise
     194 │ fb4e9e6a-f42e-11ee-101c-1197127b452f  validity      1.0  MLP     clue
     195 │ fb4e9e6a-f42e-11ee-101c-1197127b452f  validity      1.0  MLP     probe
     196 │ fb4e9e6a-f42e-11ee-101c-1197127b452f  validity      1.0  MLP     dice   ⋯
     197 │ fb4e9e6a-f42e-11ee-101c-1197127b452f  validity      1.0  MLP     clapro
     198 │ fb4e9e6a-f42e-11ee-101c-1197127b452f  validity      1.0  MLP     wachte
     199 │ fb4e9e6a-f42e-11ee-101c-1197127b452f  validity      1.0  MLP     generi
     200 │ fb4e9e6a-f42e-11ee-101c-1197127b452f  validity      1.0  MLP     greedy ⋯
                                                       1 column and 179 rows omitted
…
